%YAML 1.1
%TAG !u! tag:unity3d.com,2011:
--- !u!74 &7400000
AnimationClip:
  m_ObjectHideFlags: 0
  m_CorrespondingSourceObject: {fileID: 0}
  m_PrefabInstance: {fileID: 0}
  m_PrefabAsset: {fileID: 0}
  m_Name: EnemyAttacking
  serializedVersion: 6
  m_Legacy: 0
  m_Compressed: 0
  m_UseHighQualityCurve: 1
  m_RotationCurves: []
  m_CompressedRotationCurves: []
  m_EulerCurves: []
  m_PositionCurves: []
  m_ScaleCurves: []
  m_FloatCurves: []
  m_PPtrCurves:
  - curve:
    - time: 0
      value: {fileID: 21300000, guid: 33bfc95fd893f5447981c0cdcc74a6d5, type: 3}
    - time: 0.033333335
      value: {fileID: 21300000, guid: 5a2b91a3dea1e9744b6d2d4a1e2cc3f7, type: 3}
    - time: 0.05
      value: {fileID: 21300000, guid: c1e245da1e9a69e4bbdf364460c6b9f1, type: 3}
    - time: 0.083333336
      value: {fileID: 21300000, guid: 01d9c1e9bf6a7bc47ac8d0954ef119c1, type: 3}
    - time: 0.11666667
      value: {fileID: 21300000, guid: d68c00eeef955a84e9e37092a6e60be7, type: 3}
    - time: 0.15
      value: {fileID: 21300000, guid: 80cb5d398e60b9f4d8ff5b4f7019f9a8, type: 3}
    - time: 0.16666667
      value: {fileID: 21300000, guid: 436ac72ac1998b54f8b3f7a094d96ffc, type: 3}
    - time: 0.2
      value: {fileID: 21300000, guid: a461f7ef9de90bf4186c196e95f7c4e8, type: 3}
    - time: 0.23333333
      value: {fileID: 21300000, guid: 5fc0504631dded54b9fdec3d187cc164, type: 3}
    - time: 0.26666668
      value: {fileID: 21300000, guid: 1a3e2cb6ee1ebf840ac296e7ff808fff, type: 3}
    - time: 0.28333333
      value: {fileID: 21300000, guid: 8a441022d23782541a11d07cb287faac, type: 3}
    - time: 0.31666666
      value: {fileID: 21300000, guid: 80f50dc4a5a3da149afe3f89a72814d2, type: 3}
    attribute: m_Sprite
    path: 
    classID: 212
    script: {fileID: 0}
  m_SampleRate: 60
  m_WrapMode: 0
  m_Bounds:
    m_Center: {x: 0, y: 0, z: 0}
    m_Extent: {x: 0, y: 0, z: 0}
  m_ClipBindingConstant:
    genericBindings:
    - serializedVersion: 2
      path: 0
      attribute: 0
      script: {fileID: 0}
      typeID: 212
      customType: 23
      isPPtrCurve: 1
    pptrCurveMapping:
    - {fileID: 21300000, guid: 33bfc95fd893f5447981c0cdcc74a6d5, type: 3}
    - {fileID: 21300000, guid: 5a2b91a3dea1e9744b6d2d4a1e2cc3f7, type: 3}
    - {fileID: 21300000, guid: c1e245da1e9a69e4bbdf364460c6b9f1, type: 3}
    - {fileID: 21300000, guid: 01d9c1e9bf6a7bc47ac8d0954ef119c1, type: 3}
    - {fileID: 21300000, guid: d68c00eeef955a84e9e37092a6e60be7, type: 3}
    - {fileID: 21300000, guid: 80cb5d398e60b9f4d8ff5b4f7019f9a8, type: 3}
    - {fileID: 21300000, guid: 436ac72ac1998b54f8b3f7a094d96ffc, type: 3}
    - {fileID: 21300000, guid: a461f7ef9de90bf4186c196e95f7c4e8, type: 3}
    - {fileID: 21300000, guid: 5fc0504631dded54b9fdec3d187cc164, type: 3}
    - {fileID: 21300000, guid: 1a3e2cb6ee1ebf840ac296e7ff808fff, type: 3}
    - {fileID: 21300000, guid: 8a441022d23782541a11d07cb287faac, type: 3}
    - {fileID: 21300000, guid: 80f50dc4a5a3da149afe3f89a72814d2, type: 3}
  m_AnimationClipSettings:
    serializedVersion: 2
    m_AdditiveReferencePoseClip: {fileID: 0}
    m_AdditiveReferencePoseTime: 0
    m_StartTime: 0
    m_StopTime: 0.33333334
    m_OrientationOffsetY: 0
    m_Level: 0
    m_CycleOffset: 0
    m_HasAdditiveReferencePose: 0
    m_LoopTime: 0
    m_LoopBlend: 0
    m_LoopBlendOrientation: 0
    m_LoopBlendPositionY: 0
    m_LoopBlendPositionXZ: 0
    m_KeepOriginalOrientation: 0
    m_KeepOriginalPositionY: 1
    m_KeepOriginalPositionXZ: 0
    m_HeightFromFeet: 0
    m_Mirror: 0
  m_EditorCurves: []
  m_EulerEditorCurves: []
  m_HasGenericRootTransform: 0
  m_HasMotionFloatCurves: 0
  m_Events: []
