%YAML 1.1
%TAG !u! tag:unity3d.com,2011:
--- !u!74 &7400000
AnimationClip:
  m_ObjectHideFlags: 0
  m_CorrespondingSourceObject: {fileID: 0}
  m_PrefabInstance: {fileID: 0}
  m_PrefabAsset: {fileID: 0}
  m_Name: PlayerMeleeAttack
  serializedVersion: 6
  m_Legacy: 0
  m_Compressed: 0
  m_UseHighQualityCurve: 1
  m_RotationCurves: []
  m_CompressedRotationCurves: []
  m_EulerCurves: []
  m_PositionCurves: []
  m_ScaleCurves: []
  m_FloatCurves: []
  m_PPtrCurves:
  - curve:
    - time: 0
      value: {fileID: 21300000, guid: 10b1678aa1e79884f991a2268fd3e6d2, type: 3}
    - time: 0.016666668
      value: {fileID: 21300000, guid: 6e7ff1f5dd158e24db1c62aa583df894, type: 3}
    - time: 0.05
      value: {fileID: 21300000, guid: 1b6515bb29ab34046b23a9acbcea345b, type: 3}
    - time: 0.06666667
      value: {fileID: 21300000, guid: 064ba8c4ef05519488feccf293bf37a3, type: 3}
    - time: 0.083333336
      value: {fileID: 21300000, guid: bab755694c215d548979c06bb4050f49, type: 3}
    - time: 0.11666667
      value: {fileID: 21300000, guid: a32754bd68c298b42ba0822db59fdfe7, type: 3}
    - time: 0.13333334
      value: {fileID: 21300000, guid: 5f2fa480c1b98004b92313b02c624a8d, type: 3}
    - time: 0.16666667
      value: {fileID: 21300000, guid: c4945ebb53ffb684cb66c63b51fdd812, type: 3}
    - time: 0.18333334
      value: {fileID: 21300000, guid: fb2cfdb20fe86894f870c0f9cc65c328, type: 3}
    - time: 0.2
      value: {fileID: 21300000, guid: 1b7e59ca6c807ea428eb8a302fec31a3, type: 3}
    - time: 0.23333333
      value: {fileID: 21300000, guid: 9c4fab3ff27802f419b2d91440f8844c, type: 3}
    - time: 0.25
      value: {fileID: 21300000, guid: 4fbe4285cd68a0b4db191a04c6b95785, type: 3}
    attribute: m_Sprite
    path: 
    classID: 212
    script: {fileID: 0}
  m_SampleRate: 60
  m_WrapMode: 0
  m_Bounds:
    m_Center: {x: 0, y: 0, z: 0}
    m_Extent: {x: 0, y: 0, z: 0}
  m_ClipBindingConstant:
    genericBindings:
    - serializedVersion: 2
      path: 0
      attribute: 0
      script: {fileID: 0}
      typeID: 212
      customType: 23
      isPPtrCurve: 1
    pptrCurveMapping:
    - {fileID: 21300000, guid: 10b1678aa1e79884f991a2268fd3e6d2, type: 3}
    - {fileID: 21300000, guid: 6e7ff1f5dd158e24db1c62aa583df894, type: 3}
    - {fileID: 21300000, guid: 1b6515bb29ab34046b23a9acbcea345b, type: 3}
    - {fileID: 21300000, guid: 064ba8c4ef05519488feccf293bf37a3, type: 3}
    - {fileID: 21300000, guid: bab755694c215d548979c06bb4050f49, type: 3}
    - {fileID: 21300000, guid: a32754bd68c298b42ba0822db59fdfe7, type: 3}
    - {fileID: 21300000, guid: 5f2fa480c1b98004b92313b02c624a8d, type: 3}
    - {fileID: 21300000, guid: c4945ebb53ffb684cb66c63b51fdd812, type: 3}
    - {fileID: 21300000, guid: fb2cfdb20fe86894f870c0f9cc65c328, type: 3}
    - {fileID: 21300000, guid: 1b7e59ca6c807ea428eb8a302fec31a3, type: 3}
    - {fileID: 21300000, guid: 9c4fab3ff27802f419b2d91440f8844c, type: 3}
    - {fileID: 21300000, guid: 4fbe4285cd68a0b4db191a04c6b95785, type: 3}
  m_AnimationClipSettings:
    serializedVersion: 2
    m_AdditiveReferencePoseClip: {fileID: 0}
    m_AdditiveReferencePoseTime: 0
    m_StartTime: 0
    m_StopTime: 0.26666668
    m_OrientationOffsetY: 0
    m_Level: 0
    m_CycleOffset: 0
    m_HasAdditiveReferencePose: 0
    m_LoopTime: 1
    m_LoopBlend: 0
    m_LoopBlendOrientation: 0
    m_LoopBlendPositionY: 0
    m_LoopBlendPositionXZ: 0
    m_KeepOriginalOrientation: 0
    m_KeepOriginalPositionY: 1
    m_KeepOriginalPositionXZ: 0
    m_HeightFromFeet: 0
    m_Mirror: 0
  m_EditorCurves: []
  m_EulerEditorCurves: []
  m_HasGenericRootTransform: 0
  m_HasMotionFloatCurves: 0
  m_Events: []
