%YAML 1.1
%TAG !u! tag:unity3d.com,2011:
--- !u!114 &11400000
MonoBehaviour:
  m_ObjectHideFlags: 0
  m_CorrespondingSourceObject: {fileID: 0}
  m_PrefabInstance: {fileID: 0}
  m_PrefabAsset: {fileID: 0}
  m_GameObject: {fileID: 0}
  m_Enabled: 1
  m_EditorHideFlags: 0
  m_Script: {fileID: 11500000, guid: da795bc1f6d0a1944838218dc0fad845, type: 3}
  m_Name: Fireball
  m_EditorClassIdentifier: 
  WeaponName: Fireball
  WeaponDamage: 2
  WeaponRange: 5
  FireRate: 3
  Projectile: {fileID: 0}
  ProjectileSpeed: 1
