%YAML 1.1
%TAG !u! tag:unity3d.com,2011:
--- !u!1 &5406335778601807842
GameObject:
  m_ObjectHideFlags: 0
  m_CorrespondingSourceObject: {fileID: 0}
  m_PrefabInstance: {fileID: 0}
  m_PrefabAsset: {fileID: 0}
  serializedVersion: 6
  m_Component:
  - component: {fileID: 5660984848263377602}
  - component: {fileID: 2099790541824605350}
  - component: {fileID: 6110383631433532592}
  m_Layer: 31
  m_Name: Layer1
  m_TagString: Untagged
  m_Icon: {fileID: 0}
  m_NavMeshLayer: 0
  m_StaticEditorFlags: 0
  m_IsActive: 1
--- !u!4 &5660984848263377602
Transform:
  m_ObjectHideFlags: 0
  m_CorrespondingSourceObject: {fileID: 0}
  m_PrefabInstance: {fileID: 0}
  m_PrefabAsset: {fileID: 0}
  m_GameObject: {fileID: 5406335778601807842}
  m_LocalRotation: {x: -0, y: -0, z: -0, w: 1}
  m_LocalPosition: {x: 0, y: 0, z: 0}
  m_LocalScale: {x: 1, y: 1, z: 1}
  m_Children: []
  m_Father: {fileID: 2973662534390871105}
  m_RootOrder: 0
  m_LocalEulerAnglesHint: {x: 0, y: 0, z: 0}
--- !u!1839735485 &2099790541824605350
Tilemap:
  m_ObjectHideFlags: 0
  m_CorrespondingSourceObject: {fileID: 0}
  m_PrefabInstance: {fileID: 0}
  m_PrefabAsset: {fileID: 0}
  m_GameObject: {fileID: 5406335778601807842}
  m_Enabled: 1
  m_Tiles:
  - first: {x: -2, y: -1, z: 0}
    second:
      m_TileIndex: 15
      m_TileSpriteIndex: 15
      m_TileMatrixIndex: 0
      m_TileColorIndex: 0
      m_ObjectToInstantiate: {fileID: 0}
      m_TileFlags: 1
      m_ColliderType: 1
  - first: {x: -1, y: -1, z: 0}
    second:
      m_TileIndex: 16
      m_TileSpriteIndex: 16
      m_TileMatrixIndex: 0
      m_TileColorIndex: 0
      m_ObjectToInstantiate: {fileID: 0}
      m_TileFlags: 1
      m_ColliderType: 1
  - first: {x: 0, y: -1, z: 0}
    second:
      m_TileIndex: 17
      m_TileSpriteIndex: 17
      m_TileMatrixIndex: 0
      m_TileColorIndex: 0
      m_ObjectToInstantiate: {fileID: 0}
      m_TileFlags: 1
      m_ColliderType: 1
  - first: {x: -2, y: 0, z: 0}
    second:
      m_TileIndex: 10
      m_TileSpriteIndex: 10
      m_TileMatrixIndex: 0
      m_TileColorIndex: 0
      m_ObjectToInstantiate: {fileID: 0}
      m_TileFlags: 1
      m_ColliderType: 1
  - first: {x: -1, y: 0, z: 0}
    second:
      m_TileIndex: 11
      m_TileSpriteIndex: 11
      m_TileMatrixIndex: 0
      m_TileColorIndex: 0
      m_ObjectToInstantiate: {fileID: 0}
      m_TileFlags: 1
      m_ColliderType: 1
  - first: {x: 0, y: 0, z: 0}
    second:
      m_TileIndex: 12
      m_TileSpriteIndex: 12
      m_TileMatrixIndex: 0
      m_TileColorIndex: 0
      m_ObjectToInstantiate: {fileID: 0}
      m_TileFlags: 1
      m_ColliderType: 1
  - first: {x: 1, y: 0, z: 0}
    second:
      m_TileIndex: 13
      m_TileSpriteIndex: 13
      m_TileMatrixIndex: 0
      m_TileColorIndex: 0
      m_ObjectToInstantiate: {fileID: 0}
      m_TileFlags: 1
      m_ColliderType: 1
  - first: {x: 2, y: 0, z: 0}
    second:
      m_TileIndex: 14
      m_TileSpriteIndex: 14
      m_TileMatrixIndex: 0
      m_TileColorIndex: 0
      m_ObjectToInstantiate: {fileID: 0}
      m_TileFlags: 1
      m_ColliderType: 1
  - first: {x: -2, y: 1, z: 0}
    second:
      m_TileIndex: 5
      m_TileSpriteIndex: 5
      m_TileMatrixIndex: 0
      m_TileColorIndex: 0
      m_ObjectToInstantiate: {fileID: 0}
      m_TileFlags: 1
      m_ColliderType: 1
  - first: {x: -1, y: 1, z: 0}
    second:
      m_TileIndex: 6
      m_TileSpriteIndex: 6
      m_TileMatrixIndex: 0
      m_TileColorIndex: 0
      m_ObjectToInstantiate: {fileID: 0}
      m_TileFlags: 1
      m_ColliderType: 1
  - first: {x: 0, y: 1, z: 0}
    second:
      m_TileIndex: 7
      m_TileSpriteIndex: 7
      m_TileMatrixIndex: 0
      m_TileColorIndex: 0
      m_ObjectToInstantiate: {fileID: 0}
      m_TileFlags: 1
      m_ColliderType: 1
  - first: {x: 1, y: 1, z: 0}
    second:
      m_TileIndex: 8
      m_TileSpriteIndex: 8
      m_TileMatrixIndex: 0
      m_TileColorIndex: 0
      m_ObjectToInstantiate: {fileID: 0}
      m_TileFlags: 1
      m_ColliderType: 1
  - first: {x: 2, y: 1, z: 0}
    second:
      m_TileIndex: 9
      m_TileSpriteIndex: 9
      m_TileMatrixIndex: 0
      m_TileColorIndex: 0
      m_ObjectToInstantiate: {fileID: 0}
      m_TileFlags: 1
      m_ColliderType: 1
  - first: {x: -2, y: 2, z: 0}
    second:
      m_TileIndex: 0
      m_TileSpriteIndex: 0
      m_TileMatrixIndex: 0
      m_TileColorIndex: 0
      m_ObjectToInstantiate: {fileID: 0}
      m_TileFlags: 1
      m_ColliderType: 1
  - first: {x: -1, y: 2, z: 0}
    second:
      m_TileIndex: 1
      m_TileSpriteIndex: 1
      m_TileMatrixIndex: 0
      m_TileColorIndex: 0
      m_ObjectToInstantiate: {fileID: 0}
      m_TileFlags: 1
      m_ColliderType: 1
  - first: {x: 0, y: 2, z: 0}
    second:
      m_TileIndex: 2
      m_TileSpriteIndex: 2
      m_TileMatrixIndex: 0
      m_TileColorIndex: 0
      m_ObjectToInstantiate: {fileID: 0}
      m_TileFlags: 1
      m_ColliderType: 1
  - first: {x: 1, y: 2, z: 0}
    second:
      m_TileIndex: 3
      m_TileSpriteIndex: 3
      m_TileMatrixIndex: 0
      m_TileColorIndex: 0
      m_ObjectToInstantiate: {fileID: 0}
      m_TileFlags: 1
      m_ColliderType: 1
  - first: {x: 2, y: 2, z: 0}
    second:
      m_TileIndex: 4
      m_TileSpriteIndex: 4
      m_TileMatrixIndex: 0
      m_TileColorIndex: 0
      m_ObjectToInstantiate: {fileID: 0}
      m_TileFlags: 1
      m_ColliderType: 1
  m_AnimatedTiles: {}
  m_TileAssetArray:
  - m_RefCount: 1
    m_Data: {fileID: 11400000, guid: a190bc5fa398007428b328f4ba79a2f2, type: 2}
  - m_RefCount: 1
    m_Data: {fileID: 11400000, guid: c44d36fb89337084dbe37b210d3ed762, type: 2}
  - m_RefCount: 1
    m_Data: {fileID: 11400000, guid: abd0984619924964f94dd9a8e6be2f09, type: 2}
  - m_RefCount: 1
    m_Data: {fileID: 11400000, guid: 59e0de44ff359eb479fc4382704fe77b, type: 2}
  - m_RefCount: 1
    m_Data: {fileID: 11400000, guid: fcbd227e6afa36a40add35cab5ffb529, type: 2}
  - m_RefCount: 1
    m_Data: {fileID: 11400000, guid: af2124ddeb4da8e40915cad199d7c72e, type: 2}
  - m_RefCount: 1
    m_Data: {fileID: 11400000, guid: 70924b61e14f9ea4d8be60d10651174a, type: 2}
  - m_RefCount: 1
    m_Data: {fileID: 11400000, guid: a46561eca31546e4bb0f0413eea5ccf7, type: 2}
  - m_RefCount: 1
    m_Data: {fileID: 11400000, guid: 85e17ddeee8ed3547928ba137f9b43c4, type: 2}
  - m_RefCount: 1
    m_Data: {fileID: 11400000, guid: 99e68068059535b4db38071d182aece0, type: 2}
  - m_RefCount: 1
    m_Data: {fileID: 11400000, guid: f818f6587294b734aa60dbc2ec07809e, type: 2}
  - m_RefCount: 1
    m_Data: {fileID: 11400000, guid: 04884143dc0c9a34292b5ef8a58b830f, type: 2}
  - m_RefCount: 1
    m_Data: {fileID: 11400000, guid: 1c7ddb4a520def94f8d2a3ec1866e9c0, type: 2}
  - m_RefCount: 1
    m_Data: {fileID: 11400000, guid: 81669d1ed20b82d48ac5140c7b2c18d7, type: 2}
  - m_RefCount: 1
    m_Data: {fileID: 11400000, guid: a4f118f7341e73a4c959ba2b876200ff, type: 2}
  - m_RefCount: 1
    m_Data: {fileID: 11400000, guid: 52d14d85349a52c44ba8ed58ab31b065, type: 2}
  - m_RefCount: 1
    m_Data: {fileID: 11400000, guid: 84e43bdf8d97b8542bf488a338bca7df, type: 2}
  - m_RefCount: 1
    m_Data: {fileID: 11400000, guid: f72c2654340e3a449aaf242b14fbaad8, type: 2}
  m_TileSpriteArray:
  - m_RefCount: 1
    m_Data: {fileID: 21300000, guid: db2df9fec93d8b344b25da2ce0b7f186, type: 3}
  - m_RefCount: 1
    m_Data: {fileID: 21300002, guid: db2df9fec93d8b344b25da2ce0b7f186, type: 3}
  - m_RefCount: 1
    m_Data: {fileID: 21300004, guid: db2df9fec93d8b344b25da2ce0b7f186, type: 3}
  - m_RefCount: 1
    m_Data: {fileID: 21300006, guid: db2df9fec93d8b344b25da2ce0b7f186, type: 3}
  - m_RefCount: 1
    m_Data: {fileID: 21300008, guid: db2df9fec93d8b344b25da2ce0b7f186, type: 3}
  - m_RefCount: 1
    m_Data: {fileID: 21300010, guid: db2df9fec93d8b344b25da2ce0b7f186, type: 3}
  - m_RefCount: 1
    m_Data: {fileID: 21300012, guid: db2df9fec93d8b344b25da2ce0b7f186, type: 3}
  - m_RefCount: 1
    m_Data: {fileID: 21300014, guid: db2df9fec93d8b344b25da2ce0b7f186, type: 3}
  - m_RefCount: 1
    m_Data: {fileID: 21300016, guid: db2df9fec93d8b344b25da2ce0b7f186, type: 3}
  - m_RefCount: 1
    m_Data: {fileID: 21300018, guid: db2df9fec93d8b344b25da2ce0b7f186, type: 3}
  - m_RefCount: 1
    m_Data: {fileID: 21300020, guid: db2df9fec93d8b344b25da2ce0b7f186, type: 3}
  - m_RefCount: 1
    m_Data: {fileID: 21300022, guid: db2df9fec93d8b344b25da2ce0b7f186, type: 3}
  - m_RefCount: 1
    m_Data: {fileID: 21300024, guid: db2df9fec93d8b344b25da2ce0b7f186, type: 3}
  - m_RefCount: 1
    m_Data: {fileID: 21300026, guid: db2df9fec93d8b344b25da2ce0b7f186, type: 3}
  - m_RefCount: 1
    m_Data: {fileID: 21300028, guid: db2df9fec93d8b344b25da2ce0b7f186, type: 3}
  - m_RefCount: 1
    m_Data: {fileID: 21300030, guid: db2df9fec93d8b344b25da2ce0b7f186, type: 3}
  - m_RefCount: 1
    m_Data: {fileID: 21300032, guid: db2df9fec93d8b344b25da2ce0b7f186, type: 3}
  - m_RefCount: 1
    m_Data: {fileID: 21300034, guid: db2df9fec93d8b344b25da2ce0b7f186, type: 3}
  m_TileMatrixArray:
  - m_RefCount: 18
    m_Data:
      e00: 1
      e01: 0
      e02: 0
      e03: 0
      e10: 0
      e11: 1
      e12: 0
      e13: 0
      e20: 0
      e21: 0
      e22: 1
      e23: 0
      e30: 0
      e31: 0
      e32: 0
      e33: 1
  m_TileColorArray:
  - m_RefCount: 18
    m_Data: {r: 1, g: 1, b: 1, a: 1}
  m_AnimationFrameRate: 1
  m_Color: {r: 1, g: 1, b: 1, a: 1}
  m_Origin: {x: -2, y: -1, z: 0}
  m_Size: {x: 5, y: 4, z: 1}
  m_TileAnchor: {x: 0.5, y: 0.5, z: 0}
  m_TileOrientation: 0
  m_TileOrientationMatrix:
    e00: 1
    e01: 0
    e02: 0
    e03: 0
    e10: 0
    e11: 1
    e12: 0
    e13: 0
    e20: 0
    e21: 0
    e22: 1
    e23: 0
    e30: 0
    e31: 0
    e32: 0
    e33: 1
--- !u!483693784 &6110383631433532592
TilemapRenderer:
  m_ObjectHideFlags: 0
  m_CorrespondingSourceObject: {fileID: 0}
  m_PrefabInstance: {fileID: 0}
  m_PrefabAsset: {fileID: 0}
  m_GameObject: {fileID: 5406335778601807842}
  m_Enabled: 0
  m_CastShadows: 0
  m_ReceiveShadows: 0
  m_DynamicOccludee: 0
  m_MotionVectors: 1
  m_LightProbeUsage: 0
  m_ReflectionProbeUsage: 0
  m_RenderingLayerMask: 1
  m_RendererPriority: 0
  m_Materials:
  - {fileID: 10754, guid: 0000000000000000f000000000000000, type: 0}
  m_StaticBatchInfo:
    firstSubMesh: 0
    subMeshCount: 0
  m_StaticBatchRoot: {fileID: 0}
  m_ProbeAnchor: {fileID: 0}
  m_LightProbeVolumeOverride: {fileID: 0}
  m_ScaleInLightmap: 1
  m_ReceiveGI: 1
  m_PreserveUVs: 0
  m_IgnoreNormalsForChartDetection: 0
  m_ImportantGI: 0
  m_StitchLightmapSeams: 1
  m_SelectedEditorRenderState: 0
  m_MinimumChartSize: 4
  m_AutoUVMaxDistance: 0.5
  m_AutoUVMaxAngle: 89
  m_LightmapParameters: {fileID: 0}
  m_SortingLayerID: 0
  m_SortingLayer: 0
  m_SortingOrder: 0
  m_ChunkSize: {x: 32, y: 32, z: 32}
  m_ChunkCullingBounds: {x: 0, y: 0, z: 0}
  m_MaxChunkCount: 16
  m_MaxFrameAge: 16
  m_SortOrder: 0
  m_Mode: 0
  m_DetectChunkCullingBounds: 0
  m_MaskInteraction: 0
--- !u!1 &7950023554921584631
GameObject:
  m_ObjectHideFlags: 0
  m_CorrespondingSourceObject: {fileID: 0}
  m_PrefabInstance: {fileID: 0}
  m_PrefabAsset: {fileID: 0}
  serializedVersion: 6
  m_Component:
  - component: {fileID: 2973662534390871105}
  - component: {fileID: 3141329754961804591}
  m_Layer: 31
  m_Name: Environment
  m_TagString: Untagged
  m_Icon: {fileID: 0}
  m_NavMeshLayer: 0
  m_StaticEditorFlags: 0
  m_IsActive: 1
--- !u!4 &2973662534390871105
Transform:
  m_ObjectHideFlags: 0
  m_CorrespondingSourceObject: {fileID: 0}
  m_PrefabInstance: {fileID: 0}
  m_PrefabAsset: {fileID: 0}
  m_GameObject: {fileID: 7950023554921584631}
  m_LocalRotation: {x: 0, y: 0, z: 0, w: 1}
  m_LocalPosition: {x: 0, y: 0, z: 0}
  m_LocalScale: {x: 1, y: 1, z: 1}
  m_Children:
  - {fileID: 5660984848263377602}
  m_Father: {fileID: 0}
  m_RootOrder: 0
  m_LocalEulerAnglesHint: {x: 0, y: 0, z: 0}
--- !u!156049354 &3141329754961804591
Grid:
  m_ObjectHideFlags: 0
  m_CorrespondingSourceObject: {fileID: 0}
  m_PrefabInstance: {fileID: 0}
  m_PrefabAsset: {fileID: 0}
  m_GameObject: {fileID: 7950023554921584631}
  m_Enabled: 1
  m_CellSize: {x: 1.28, y: 1.28, z: 0}
  m_CellGap: {x: 0, y: 0, z: 0}
  m_CellLayout: 0
  m_CellSwizzle: 0
--- !u!114 &7616363834030340313
MonoBehaviour:
  m_ObjectHideFlags: 0
  m_CorrespondingSourceObject: {fileID: 0}
  m_PrefabInstance: {fileID: 0}
  m_PrefabAsset: {fileID: 0}
  m_GameObject: {fileID: 0}
  m_Enabled: 1
  m_EditorHideFlags: 0
  m_Script: {fileID: 12395, guid: 0000000000000000e000000000000000, type: 0}
  m_Name: Palette Settings
  m_EditorClassIdentifier: 
  cellSizing: 100
