%YAML 1.1
%TAG !u! tag:unity3d.com,2011:
--- !u!78 &1
TagManager:
  serializedVersion: 2
  tags: []
  layers:
  - Default
  - TransparentFX
  - Ignore Raycast
  - 
  - Water
  - UI
  - 
  - 
  - 
  - 
  - 
  - 
  - 
  - 
  - 
  - 
  - 
  - 
  - 
  - 
  - 
  - 
  - 
  - 
  - 
  - 
  - 
  - 
  - 
  - 
  - 
  - 
  m_SortingLayers:
  - name: Default
    uniqueID: 0
    locked: 0
  - name: Background
    uniqueID: 2334697969
    locked: 0
  - name: Platforms
    uniqueID: 844804689
    locked: 0
  - name: Characters
    uniqueID: 222438547
    locked: 0
  - name: Effects
    uniqueID: 629763169
    locked: 0
  - name: UI
    uniqueID: 1226279767
    locked: 0
